address, type, date
0x09750ad360fdb7a2ee23669c4503c974d86d8694, 17, 2020-11-17
0xc915eC7f4CFD1C0A8Aba090F03BfaAb588aEF9B4, 17, 2020-11-14
0xecb6ffaC05D8b4660b99B475B359FE454c77D153, 19, 2020-11-14
0x7F85A82a2da50540412F6E526F1D00A0690a77B8, 15, 2020-11-14
0xBc8b85b1515E45Fb2d74333310A1d37B879732c0, 18, 2020-11-14
0xBBF84F9b823c42896c9723C0BE4D5f5eDe257b52, 15, 2020-11-14
0xD5cE086A9d4987Adf088889A520De98299E10bb5, 10, 2020-11-14
0x6B5C35d525D2d94c68Ab5c5AF9729092fc8771Dd, 19, 2020-11-14
0x4541c7745c82DF8c10bD4A58e28161534B353064, 10, 2020-11-14
0x0a00Fb2e074Ffaaf6c561164C6458b5C448120FC, 14, 2020-11-14
0x3A3999e6501e2a36dD3C0B8Fc2Bd165fc4a22e54, 15, 2020-11-14
0x39F3E7fA18d342De467AD9d7065A46c8385589F7, 12, 2020-11-14
0x439cB5628e64677c540A8635c86e41D83C1170d5, 19, 2020-11-14
0x22764DE8f82F2D2a90e0cCCa4556A2a5114B6461, 18, 2020-11-14
0xc28F50625CfE028Ab1A3458C7cEbCf9657Ff1438, 14, 2020-11-14
0x14130D36B36887620c37A404f859D11e293ec06A, 15, 2020-11-14
0x2f77f4523a13138b472Ac6fAeF624ccE68DA2c46, 15, 2020-11-14
0x2315314c5Cadb895C2c9982b847FD6f6A32D6129, 17, 2020-11-14
0x8651e8e218597e781E9a6D8CEB53ec5A236Ae75b, 19, 2020-11-14
0x2f80A6700e4bea478aC027F019f04A78a7538D06, 15, 2020-11-14
0x90a16ebcf1bc0da0347134f707da93c40bb8a4c5, 19, 2019-03-01
0x983bda798a24720bb4fe3dba287ec352e7b440fc, 18, 2019-03-01
0x45029af827c652f47b1f678456b2cd009647c8ad, 18, 2019-03-01
0xF193a9aFb00715AaCF7ca9Ebffafe02C77517C2E, 17, 2018-11-06
0xcc02b920ae227f1be7d01fc241c27e5f74d40436, 17, 2018-10-28
0xa153a6eF80fb5d60de18688bdC82684d48FC8De1, 17, 2018-10-28
0x19fb7020381fe9197bf841d5034D5467FE5a3C93, 18, 2018-10-27
0x8abe0a9b8A1C8a003354E61F3ed8befdeb7D2CEc, 10, 2018-09-12
0xfb6E71e0800BcCC0db8a9Cf326fe3213CA1A0EA0, 15, 2018-06-19
0xB4c9d8A5812a024BDb177991af256dA144776033, 15, 2018-08-30
0x5ddD20aC4bACFf3f148aF4C8C24194a1C102CfE5, 18, 2018-08-30
0x03f034Fb47965123ea4148e3147E2cfdC5B1f7a5, 17, 2018-08-30
0x3B5744c7F340E0d2Dcf7A072A4c963B9a43c982B, 15, 2018-08-01
0xEeF2a09be2A136bBa76F04CF056E36947DBf0b0C, 19, 2018-08-01
0x86dDF5b305B9081fB5208e903EDeB013510997cd, 19, 2018-08-01
0x181c71726f12ce2514e8b93019eb22645a79f966, 17, 2018-05-14
0x2056d2e97cc9ad78cf527b382495a8b9704ce011, 15, 2018-06-02
0x259EFb559a5D9ed64ccF44Bd5188b325DC4738c8, 15, 2018-05-28
0x42A777E0F24390E7ed461a7AF325526e53ac57d9, 19, 2018-05-29
0x4e790c545478029d20816a7212c46adde058d63e, 13, 2018-05-31
0x5D840DB230c397AcC22ab28053d1a1fF7f14583E, 10, 2018-06-01
0x6cF481C7090D88CA6F1Fa3C9FFD0911Ef5359808, 14, 2018-05-29
0x73bb594368ddB778972C6f30b41437C897419C37, 13, 2018-05-29
0x7613a475b7fE61775f579Bc148300C8171EcCaE9, 13, 2018-05-31
0xBC83D48Dd0cd9c3F47Bab6436DeFeB334B563f4C, 17, 2018-05-26
0xbca6294a6c80ee0f20173547b8d85d4948a0cb39, 18, 2018-06-02
0xbeEbe66b6A511dD2acCBfF7F258554dbe97f1294, 14, 2018-06-01
0xea7380369af53598a55b4622909cd9633e0ae7fa, 19, 2018-05-30
0xfE9B7DB8d9D57E9ad9341bCf51B110Ba5d27b48B, 13, 2018-06-02
0x08389B19ad52f0d983609ab785b3a43A0E90355F, 17, 2018-05-01
0x4114FB8B1879f61b18f7d2E623569a847a03e15A, 15, 2018-04-27
0x3c3b85b2ae785a8cc16c3d4df12cb27c6983dff5, 19, 2018-04-08
0x35ad1cb9a39de486cebcce3cf51661fd6c848193, 19, 2018-04-08
0x15f4a5d5bbc071fc20bd60b9b7d81aaa8a1142ab, 10, 2018-04-08
0xa2a6ceadcb7db611f618ebabfe6de5763953b7c7, 15, 2018-04-08
0xe4faeef4002c200d9d4f1d381ccb5fb679d1c437, 18, 2018-04-08
0x68a91eba9c82b475091077e16357bb2dded479f4, 18, 2018-04-08
0x64c5971dd27ff063ee4bc5e4c231febd9fc228cd, 13, 2018-04-08
0x484aa220812a5ed3d1162686bc8592eb39276348, 15, 2018-04-08
0x3810bd434103f1d0618b909ba14e4d2d707d79f7, 15, 2018-04-08
0x6834d3096793d0731348f1581ae1b20c9b79e26a, 10, 2018-04-08
0x0dac7a548551dd2e0f7293005f14f9261d7e0196, 15, 2018-04-08
0x55c4dfc965b911afee18a7d2d94a245b867395b6, 19, 2018-04-08
0x0e04298d9eaffaf538fe04b4cd525b6d1b64c3ca, 19, 2018-04-08
0xb5879bf4a37c6ed9d86a6f2d8aab7939b21687cd, 18, 2018-04-08
0x4e556877e96fdf3bef67c81ef72e20ab29a9aebf, 15, 2018-04-08
0xc8ce1c3ac9549d479a90a6a89155b9b94e54d9ba, 12, 2018-04-08
0xe344e4b209e8eabaa2a6ddd1b0aa120b7599af25, 13, 2018-04-08
0x0a4392f623faf54de72cbf6f567e1a7808251cd3, 19, 2018-04-08
0xfb990112f51931a2834fcf574a860b7419ecd76f, 13, 2018-04-08
0x86d38dbde80fe6a947565967f41cf958cc271548, 19, 2018-04-08
0xa46311dc4d3bc52b66d45e74682042bb143a9aa3, 12, 2018-04-08
0x18ec1d727320cbed7c0c63cd655ade997b292c5e, 18, 2018-04-08
0xdf967ff95cd5ff35a27786dbd906fbb9ded116af, 17, 2018-04-08
0x300d4fbdb7ef38488eb9338982686e04ba426715, 14, 2018-04-08
0x15a99893dc47bfae5b06e9b4c8941aaca60f8af5, 17, 2018-04-08
0x8c38a4e5104a2925d9e23d5f269afd1c2e09b8f9, 13, 2018-04-08
0x43f030a549f780d1af59a782eaadce4dec7ba183, 19, 2018-04-08
0x2903e9f1d81fac8ccc313b5b496f2db7db6750b6, 10, 2018-04-08
0x72b59c7ff61130f4923e2da6af27d562dd64191c, 13,
0x5bc989f38ec9b913b0fbd8b702858214d428a1bd, 13, 2018-04-08
0xdb21509547c82b69e714bf3a761e6d64f0f91cd0, 17, 2018-04-08
0x101c55c14bbde713d4c718b67256133bac8126c6, 13, 2018-04-08
0x56f0e244ea07e894170731285daf8cf4864e368e, 15, 2018-04-08
0x5e0f56a3e977318b69303c12369b2a797dfa2b0b, 19, 2018-04-08
0xD0cC2B24980CBCCA47EF755Da88B220a82291407, 3, 2018-03-12
0x4cdc1cba0aeb5539f2e0ba158281e67e0e54a9b1, 3, 2018-03-12
0x00e01A648Ff41346CDeB873182383333D2184dd1, 1, 2018-03-12
0x858457daa7e087ad74cdeeceab8419079bc2ca03, 2, 2018-03-12
0x2268751eAFC860781074D25f4bD10DED480310B9, 18,
0x379ce20c018fb6301c1872c429ec7270ffa4dc5b, 19, 2018-03-12
0x2b065809f6ec6df32878bcd26711a0e2bcf59c26, 19, 2018-03-12
0xcdd1c19dcc3f473eaef6edb0a28e1e796d6e1767, 17, 2018-03-12
0xBa83e9Ce38b10522e3d6061A12779B7526839eda, 10, 2018-03-12
0xBa83e9Ce38b10522e3d6061A12779B7526839eda, 13, 2018-03-12
0xf73EF0650415656B51Be39bD5D37CF5cE03f4033, 12, 2018-03-12
0xedf202629bb7e9f72d4c62c325d198513fa7a3d3, 13, 2018-03-12
0x00e01a648ff41346cdeb873182383333d2184dd1, 3, 2018-03-12
0x33F74739ce6bE3B2c38AF76F5aDB3866CB4784c4, 10, 2018-03-12
0xaa1886de3f70a3ef502ea1379a311c5b4e05f3fd, 3, 2018-03-12
0x379ce20c018fb6301c1872c429ec7270ffa4dc5b, 1, 2018-03-12
0xf9fe85e19bd533c69067c6e2ff02727d40a54100, 3, 2018-03-12
0x4423b4d5174dd6fca701c053bf48faeaaaee59f0, 6, 2018-03-12
0x89C98CC6D9917B615257e5704e83906402f0f91f, 6, 2018-03-12
0x4a0d27a1044dd871a93275de5109e5f5efc4d46e, 0, 2018-03-12
0x3681828DA105fC3C44E212f6c3Dc51a0a5A6F5C6, 0, 2018-03-12
0xe4fa5149306b12d51dc0d04e5e95bc9704ccaad7, 3, 2018-03-12
0x1e80dad60d19fb8159af3f440a8ceaa0e5581847, 2, 2018-03-12
0x3681828DA105fC3C44E212f6c3Dc51a0a5A6F5C6, 10, 2018-03-12
0x52b7c8857Be3853fA68e09D9Ba7a9ADf075040eA, 3, 2018-03-12
0x3b0009071a0a9983e9aab537fd8c9ad478310aeb, 1, 2018-03-12
0x4Bf722014E54AeAB05fcF1519E6e4C0c3F742e43, 2, 2018-03-12
0xD9932453997ddF36fE114C9F22beBb9eE77b2921, 2, 2018-03-12
0x68B0e0Db7918C0211EA1fB78292a879839137DD0, 6, 2018-03-12
0xF902AA3a62F9E28878129E1A8f1EB71E4FD7a88C, 6, 2018-03-12
0x1086fEeb031e45e8FCD770662Aa8302d7C23ba1F, 6, 2018-03-12
0x685445fE51B31790538890A6468851AfbF7a0519, 1, 2018-03-12
0x6fcf42fcd9c6a54b64d1b52083700142952a2805, 2, 2018-03-12
0xda657e9fa116900fab8178e5580a3a6cedd89f3c, 6, 2018-03-12
0x44A7fF01f7d38c73530C279e19d31527Bdcf8c78, 2, 2018-03-12
0x1de23F02E185fDc4f6BACc98D6c6419370E38538, 15, 2018-03-12
0xdA657E9Fa116900fAB8178E5580a3a6CEDd89F3C, 12, 2018-03-12
0x6506827D91659e871fc7267160ba1C3407195270, 6, 2018-03-12
0xf1e250F2a27ab7eC5B82B287F2799260448CD51D, 0, 2018-03-12
0xFBF6F29c126382cf15795bB209EE506a174cC709, 3, 2018-03-12
0x7CBC4E0D168744912C5Afc081499145BBDc51e69, 6, 2018-03-12
0x57b818a1070373e21fcedf48d4368e1703c75852, 12, 2018-03-12
0x8369F6723C4792b41d4AF4190662269431Ee5B0b, 1, 2018-03-12
0x57d02550f47dd932d2fb84e0aa883c9d8d53c313, 2, 2018-03-12
0x4999924fD714092FE92cA9A792a8549f798c1Dc2, 3, 2018-03-12
0xF8E676094628776690DBf83fa31f08aA14FD3fb8, 3, 2018-03-12
0xc4b51a247514901faf1b6b1da9f0836066e64407, 0, 2018-03-12
0x4Bf722014E54AeAB05fcF1519E6e4C0c3F742e43, 6, 2018-03-12
0xCbCD4b518890429C0Ffef3d782eD99b3ADFF009b, 12, 2018-03-12
0x5d3f32f4b2e99fb79d2f6a1cbf3aa7390f8fc751, 10, 2018-03-12
0xbe3364dfb8158A3e452FF96AEb247BF3f5F019B5, 10, 2018-03-12
0x7a18cfc4a36e48163034e51a9ed19d4bdea05f6f, 2, 2018-03-12
0x7C203685291149D5dAd4308781F42A6B945dF4E1, 3, 2018-03-12
0x7e3d7D8E31b3F472FCD3C1552a9F009131C50C6C, 2, 2018-03-12
0x4Bf722014E54AeAB05fcF1519E6e4C0c3F742e43, 6, 2018-03-12
0x29e225d888cf11c5e67613bffd30bcf071eb3d4a, 2, 2018-03-12
0x6d0b90ea2951ca5ad3abdb606e4146e9765f1ee4, 2, 2018-03-12
0x64f3502c4b6b7e7f106e7ab1f175a4e2c2fde45f, 6, 2018-03-12
0x6D0b90eA2951ca5ad3ABdb606e4146e9765f1ee4, 12, 2018-03-12
0x143494359bBACC878308075C1c9FA05fcda96651, 0, 2018-03-12
0x920aDc9A060cdA345fdEc2fdeBAd6EBF38eDf83D, 6, 2018-03-12
0xbcc6c0fef89b87a12773db7a9a8ecbccccdb7aff, 1, 2018-03-12
0xf9a5139E42c3ca13D5b24D23ab2B18C278805Dc4, 6, 2018-03-12
0x8cF893F11f6037B14f0f827B9ed6AEef38931Fb4, 0, 2018-03-12
0x893676c4A94F6EcdC33a18438BBdCfE9e6c68a9a, 1, 2018-03-12
0x05Dd62c007CDe143B402fA5Da3937C40c70b4B14, 2, 2018-03-12
0x0Dcc89F3091d3EF66E00Fb595Ed0FaFEf4434192, 2, 2018-03-12
0x2A7D04018D7295D8069Ec9721eE415c4Bdc57909, 3, 2018-03-12
0x1c2FB401D3Dc4fd8131ccFc4589F281D58921402, 3, 2018-03-12
0x8cF893F11f6037B14f0f827B9ed6AEef38931Fb4, 1, 2018-03-12
0x88698a2ff09506596a88a1af9d103a420ba46a3e, 0, 2018-03-12
0x05E3650Bfc907Cc1b3C774F0c053C8B990ce1A4b, 2, 2018-03-12
0x801D03f4d053242aFbc2949c141BAB4270Ca6707, 10, 2018-03-12
0xB71dF0DbbB9754c1aa9115253F4eBb7EF3f8a57c, 6, 2018-03-12
0x3AA65f17cdE339dF49AFd2F88B3C8495842D5FB0, 1, 2018-03-12
0x37c81cc9ff71d0f97849a947bf22e8e529b72230, 10, 2018-03-12
0xef57aa4b57587600fc209f345fe0a2687bc26985, 2, 2018-03-12
0xB7c4A4341c0A03460B6ceC4fa997dD2D748Ce281, 2, 2018-03-12
0x3639b8B8edA816B2cb62b65159A183972a3cf863, 3, 2018-03-12
0xd3d7c71e4c5b1ff2f42fbb9b4a21f3373aa8b3b0, 2, 2018-03-12
0xAF31bf4Fa017768E6426308Cf17E16d633700265, 10, 2018-03-12
0xd055610c2d5151aDb3eaF994e08aBe45DeE936E0, 3, 2018-03-12
0x8dcdb7fc9f541825ba57fb47d5204317fc609590, 10, 2018-03-12
0xef6805af393c34fe772f8d827a5d26685215612a, 6, 2018-03-12
0x62404BFB3e1c464f17e3AF0c139e39D0703ae4A1, 0, 2018-03-12
0x9A95f2Ca24d1dCb01048E0623f63F9D174237dEb, 3, 2018-03-12
0x071cf579507DD0661845694F709E68CF7Ea506a4, 0, 2018-03-12
0x1b42BF30CD988Ad20500cE47ccE52098576Ec2a2, 2, 2018-03-12
0xa2896b45f8bD313B777F1027724da1b5F2205A58, 2, 2018-03-12
0x1aef1E14108786e0B049f37758529d866cc3c7e6, 6, 2018-03-12
0x1aef1E14108786e0B049f37758529d866cc3c7e6, 3, 2018-03-12
0x3853ba76ec6ae97818e2d0e0839c9eda6c396690, 1, 2018-03-12
0x33f6eE23eE223c4558a95bF4C0e9f5eD21e06319, 12, 2018-03-12
0x22374A2E9E19bcea56E64F9De3329670CD1a458c, 0, 2018-03-12
0xA35e3534917E471540345733B8f23e7bAd54681b, 3, 2018-03-12
0xa6B60dd3bE491aAfE5AbA8622b35C0eAd608D3FD, 0, 2018-03-12
0x6D8A1BC0AE09aE5cFd4a7A2a59194598734CEea5, 12, 2018-03-12
0x6D8A1BC0AE09aE5cFd4a7A2a59194598734CEea5, 0, 2018-03-12
0xF3Ae45D5A0B8EfB41444101267b56E6795051FaC, 3, 2018-03-12
0x8A46Aa04725b2E2029bdCb924D671Fd6a9c11daB, 0, 2018-03-12
0xda1cC010259496d407a764c381D0E82182D68D89, 2, 2018-03-12
0x42ff5fff0e369ef6880875efcacb3b7c77974abc, 6, 2018-03-12
0xEeD7072FCF46733833249D1E979c44fE4F2a23a2, 0, 2018-03-12
0x7c57981AF4cee87567774B53F9da1bFCeb8B944b, 3, 2018-03-12
0xfbc79A80ffA84253611e8f9A82F18e9E93Ceee81, 2, 2018-03-12
0x943DB403251105195F56cE69c7c48A6320475AB1, 12, 2018-03-12
0xD754B5Bf41B84Bcb49CB952F858318640aBC60E0, 0, 2018-03-12
0x902d0d5bb6a34307bbd1da33e61ae1654b6cbe1e, 10, 2018-03-12
0xF0Fc2d4d550253d8C165C599E0cCCf221c7eb7b5, 6, 2018-03-12
0x52005B77fbEBf53cfD9527A388f58d0431AaaA3e, 3, 2018-03-12
0x1E67F055367bcBCe045E1211F09355Eb7411236F, 6, 2018-03-12
0x316b3b83c33B20249B61DEd124F2620d8E823793, 0, 2018-03-12
0x0ae775637e63Fa95855246Fd82e96802D05883Fc, 6, 2018-03-12
0x71108Be9C232722Dd6839A6fbaD171cf44d3FfAf, 12, 2018-03-12
0x29e225d888cf11c5e67613bffd30bcf071eb3d4a, 12,
0xA3e52a23060cCDfE186822b52BF60A07451e094e, 1, 2018-03-12
0xD50fCd07007255599A9A8CedD881F863bcD65eb1, 6, 2018-03-12
0x7F85D875EAF39525004E8Ac2BC1e83786D7Dfd77, 19, 2018-03-12
0x4Bf722014E54AeAB05fcF1519E6e4C0c3F742e43, 10, 2018-03-12
0x504f1E10da987490Db4f0D92931497f635E240e8, 19, 2018-03-12
0x24C00035b050BeC633287c2bABfBb9f4fE3C8A83, 12, 2018-03-12
0x6e3E57E536aab05950774945d9cdBf506865c52f, 17, 2018-03-12
0x2804e8B4c04c655376D18aDA84d46fC345240E0A, 12, 2018-03-12
0xA0D67BF1aE91B6b705abD4f695Cc13edAAcd0D02, 18, 2018-03-12
0xe54659243F8542d6ABfd15bbff69f62465786756, 15, 2018-03-12
0x51DcD13361C5D921D2C4818e419011301e7BE34e, 13, 2018-03-12
0x784205ACD9423a2044D09E41642A71E087162861, 18, 2018-03-12
0xd912289C9F079b0655737a55FD5D745501ECEfc7, 18, 2018-03-12
0x1494403137159bb0dc545d11963fDF797ea1eCAb, 19, 2018-03-12
0x43AC6AaE3c5dd21855C3aABe3CADB7dFdCf2E5be, 19, 2018-03-12
0x51DcD13361C5D921D2C4818e419011301e7BE34e, 17, 2018-03-12
0x51DcD13361C5D921D2C4818e419011301e7BE34e, 17, 2018-03-12
0x51DcD13361C5D921D2C4818e419011301e7BE34e, 12, 2018-03-12
0x738a4dAAE8d4A640172fAC4F45B41707BD2197be, 15, 2018-03-12
0xea6e18FD3C301e4300BC99B6Db792fcff376Abb4, 15, 2018-03-12
0xc31fB4c352cb68c847715D46D97C1fa2Aa2d0f00, 13, 2018-03-12
0x1447b1cB205158D98FdBd312b37ed9dd1481fB62, 15, 2018-03-12
0x55456cBd1F11298B80A53c896F4B1dC9Bc16c731, 17, 2018-03-12
0x57DCF20135B0Cb9D167e8ebFe13b84bfD67645ed, 13, 2018-03-12
0xa2A3a8e4a1877da1C913df7591ac0D72f27D4510, 10, 2018-03-12
0x1cea7999fdafe5d156952ebf1816e8aa67a5485e, 19, 2018-03-12
0xAb1C30cd2d9964b3B845ef744E2E4043739430e5, 19, 2018-03-12
0x55456cBd1F11298B80A53c896F4B1dC9Bc16c731, 12, 2018-03-12
0x9D0b8447f16d6bC1de2B52d63e9c487bD778a91D, 10, 2018-03-12
0xeB8b629Df028f5353649460F1c06bF394dE8641f, 10, 2018-03-12
0xa5797eA738AbF85Db7B3f2e04A4a40A5180044A8, 12, 2018-03-12
0x51DcD13361C5D921D2C4818e419011301e7BE34e, 19, 2018-03-12
0x57DCF20135B0Cb9D167e8ebFe13b84bfD67645ed, 15, 2018-03-12
0xfCDd417b449C982Fc9b6d7B117E417682E81b627, 10, 2018-03-12
0x72A66Bba491F0C696c4c4e3154D07B241d371944, 10, 2018-03-12
0xeacEB8e777dC8b1c11b8730904D13fBDA070846f, 19, 2018-03-12
0x0A78fa6Dab70385dD46fbDD20DA5d868EB43F904, 14, 2018-03-12
0xEed48722238b98317D849fA591D96B7efBE9B06F, 14, 2018-03-12
0x0D502F90C0a740b9C069ddec1c436D483ED7ab8E, 10, 2018-03-12
0xb37722E14FcFc78A56312A9a746C5474822002F2, 15, 2018-03-12
0x0387cfC283fFcF25A4a6A61E832545Bbeb7c8fdA, 15, 2018-03-12
0xa7a020aE798A0a026c57eD6cBE48b21D3DBBEc5B, 17, 2018-03-12
0x8c9d299cc3C2111499416Cf4E3677328486cFac2, 19, 2018-03-12
0x4C191DCa6cecFA1e55CAA3CF178eea52728B13E7, 10, 2018-03-12
0x514E9CA5406F112aBa902b0CbA87395b914D861e, 19, 2018-03-12
0x0387cfC283fFcF25A4a6A61E832545Bbeb7c8fdA, 17, 2018-03-12
0x2da8703d18AFeD53B303119E4fF06CF035a9fadB, 13, 2018-03-12
0x6d0b90ea2951ca5ad3abdb606e4146e9765f1ee4, 15, 2018-03-12
0x64f3502c4b6b7e7f106e7ab1f175a4e2c2fde45f, 14, 2018-03-12
0x660d30d1fbafdc88a1951370cbe2b3094dbf224b, 15, 2018-03-12
0x2bcC8aefa2fc9D8E52DaD098778Bb0A8D08a4aA3, 19, 2018-03-12
0x29e225d888cf11c5e67613bffd30bcf071eb3d4a, 15, 2018-03-12
0x7F2b4801c338A7B3cc322bFAf151aFea8708E8e0, 19, 2018-03-12
0x2da8703d18afed53b303119e4ff06cf035a9fadb, 14, 2018-03-12
0xdbe6dba965afc52f5b3d51e4b15e372f45d4106a, 10, 2018-03-12
0x9441A81FB67f44Ce7B31C311317e136E7067F8cA, 12, 2018-03-12
0xDaa29859836D97C810c7F9D350D4A1B3E8CafC9a, 10, 2018-03-12
0x3853BA76eC6AE97818E2d0e0839c9EDa6C396690, 10, 2018-03-12
0xE10270BFb1eD82E120BfC392efb3C94a1604DeD6, 14, 2018-03-12
0x8444173280E5fDC0525494638123b014CfFcC521, 13, 2018-03-12
0x72A66Bba491F0C696c4c4e3154D07B241d371944, 15, 2018-03-12
0x72A66Bba491F0C696c4c4e3154D07B241d371944, 13, 2018-03-12
0xEC2D5cC008Ba6D2237d33CA9CF74B684737FCaE8, 15, 2018-03-12
0xAc82537fae701B2046F62BB718c4857787b0b647, 10, 2018-03-12
0xf962933e44b1DFC771738A034c80D87bDcd96eCC, 14, 2018-03-12
0x52005B77fbEBf53cfD9527A388f58d0431AaaA3e, 19, 2018-03-12
0xc94a6e7776bade5da316cf6fd8c751fb0d5c3c5e, 10, 2018-03-12
0x58a166f9a6ff996e2349eea90d42cc198529a037, 19, 2018-03-12
0x58a166f9a6ff996e2349eea90d42cc198529a037, 18, 2018-03-12
0x0059b14e35daB1b4EEe1e2926C7A5660dA66F747, 12, 2018-03-12
0xFa1F0b67B9b48b2E87467D72f09722E19eD601bd, 14, 2018-03-12
0x119240Ef17333E8DCB19A0DD4f5fC848981b0Ff4, 15, 2018-03-12
0x0310c4385311D225CBCACa26FEFc9Ab45D3eba3E, 14, 2018-03-12
0x6AF114154A8850B1c54d48bD9103BDCdB420611B, 17, 2018-03-12
0x0B7f284D74F549731499C44aEd2A10ADCc9E9cC0, 14, 2018-03-12
0xf33068d5e798f6519349Ce32669D1EC940Db1193, 13, 2018-03-12
0xB2AC8e363eA34201df532A01522a006fCAa389Ee, 19, 2018-03-12
0x02673ebfbfaed5891f6b14248b0e2753a8758fbf, 18, 2018-03-12
0xb37DA5c9179345341Fe50D37cfc961ba47C01f9a, 12, 2018-03-12
0x5d1bCBDE56db05BeaD0FF7C87C9dC85BAF98ab32, 10, 2018-03-12
0xC1dD8Ac971129C8C08333924F58Ff40a50b8bb9a, 12, 2018-03-12
0xB23fB6cC17026D1Ce9cD543Cb69A023569503e4c, 15, 2018-03-12
0x660d30d1fbafdc88a1951370cbe2b3094dbf224b, 17, 2018-03-12
0x91619a3456FDbAc90bD93f51F2917981f0ED3097, 15,
0xf4c87c851d772b0f9e72cca0690327f2bc505015, 15, 2018-03-12
0xc0fed35b43f59c2bfb1eb544bd8921bfb18140c2, 12, 2018-03-12
0xc169a0e826f22fc7d37a48aaa346ffb4521c35cd, 19, 2018-03-12
0xac3800002e45ed2e1a55dedfa2aca137f6dba61e, 12,
0x1c39d6E0278D1A28Ce21DBD73826559b010224E5, 19, 2018-03-12
0xB2A3FCf38979898e695c88947e3373bf1c2E9b37, 15, 2018-03-12
0xB2A3FCf38979898e695c88947e3373bf1c2E9b37, 15, 2018-03-12
0x33bf8bde242216da572d6486d641ae0a18137306, 15, 2018-03-12
0x0eF2724a6D8be9f72f3d35b62E1e8a37CEaF721e, 15, 2018-03-12
0xf747726200C7FC14Ef4CE267b1F070128C2260Dd, 13, 2018-03-12
0x0C8b0b3e963beCf16cda410fe1Eb4B5D64022C94, 13, 2018-03-12
0xce686d019E6f692aF646A8dF3BfE789dA97a484f, 19, 2018-03-12
0x6d64486A5C99139b53239297E0b653D196d05777, 19, 2018-03-12
0xcc66ea7ef61a67df02afb18706c68a5f30b22300, 17, 2018-03-12
0x2789b7b3557f39643198433daEBF6b43512Be65B, 18, 2018-03-12
0xB9Cfb36060785F6800B1aB9ccC9B4F341d097399, 18, 2018-03-12
0x75dbe6e21e38a05a82ad64281a9e28a627619273, 18, 2018-03-12
0x93574D7c405717D80520944Ee1Cb72D327B01dF5, 13, 2018-03-12
0xd5EDb088b7382b397238f5010D14cf10Dd395007, 14, 2018-03-12
0xaC513396Ee50091972eE6fc07D120b6Ad360b233, 14, 2018-03-12
0x94D55B6f8b53903026399ab45294140EAfbFbF44, 15, 2018-03-12
0x8202b590Eca4662446102b3a97E3536aAc8ab941, 14, 2018-03-12
0x26F7Eb488661C33c43089aD61944f3231222b32f, 19, 2018-03-12
0xF394D807795ff57373F1fe903046596CB0f69ACC, 17, 2018-03-12
0xcae77a05ab518492144944fb50572ebfa3595870, 19, 2018-03-12
0xBbDEF8b12BABD3ab6018566BC17eC3Aa302b8348, 17, 2018-03-12
0xD362C189cb0056159d2fE22bD8203e26579f620D, 14, 2018-03-12
0x6122EE683dbEe50fD432fE5BdD8Ac055aA3D42b1, 18, 2018-03-12
0xdF3e77CD5e563f93fC7ecA905d3302e95f9bb150, 19, 2018-03-12
0xd9D25DcE4c3765855c76F3d2BAccc0755C4d0bc5, 19, 2018-03-12
0x9B521529D04329C2B0a9F9B7DB18ed775c6cA8FC, 13, 2018-03-12
0x545f5e5c54d8ac72af1c7de8c070387b73841a24, 14, 2018-03-12
0xE0b13c073e8173b06062c69A160EbB54e2AF86c3, 17, 2018-03-12
0xB76a4770587f76d6c644DeeC275a2c76069b5F14, 17, 2018-03-12
0x0d9786138578fcdcce04435592545ef08422d755, 14, 2018-03-12
0xbb53be0690ae7256833099a1f01125eb33445692, 19,
0xbE11D0d38Ef4857224032afc9C96647492F726cE, 15, 2018-03-12
0xD0Ac32Ab01D9D3EC145EF63f73BF4e222dBCc0fb, 19, 2018-03-12
0x545f5E5c54d8ac72AF1c7DE8c070387b73841A24, 13,
0x0059b14e35daB1b4EEe1e2926C7A5660dA66F747, 18,
0xdafc2a2d4e070f863cfcb5887bc2516e05e18877, 19, 2018-03-12
0xAC1a4f4D49715e31f54CB8e0bf867Bb9170C10Cb, 19, 2018-03-12
0x5d82db63cf0c54d47006d416bdc7dab09ea2f3f1, 17, 2018-03-12
0xA82C7c0Ef05080463E4ac55DB8b8531007f3A66C, 12, 2018-03-12
0xdcd2fb1c1b103c5a591e76798704cfaa27baf6b9, 19, 2018-03-12
0x5efb7d2ab258b18c8166b0c74fc4117716e52515, 15, 2018-03-12
0x414bca672494b8f078112c52ae258f9e8de1a4a0, 15, 2018-03-12
0x3dfE9F7Af8864DF0b7Cc2a20430006fd1af8dA1a, 12, 2018-03-12
0x5B6D3d66E18Dfd31ed9A753C406963C401f356C0, 19, 2018-03-12
0xc8c3234Aea55a5F746b2aE585a849ba0BFa57785, 18, 2018-03-12
0x774148e22F021972bfe082e1548E5d9dC6e1D76E, 17, 2018-03-12
0xeeCC46A74ceA6133a12672bD62D5167877B4d521, 10, 2018-03-12
0xeeCC46A74ceA6133a12672bD62D5167877B4d521, 19, 2018-03-12
0xe5b913f91f2b90c5cd04d711e1eb3214c56dba98, 18, 2018-03-12
0x0059b14e35daB1b4EEe1e2926C7A5660dA66F747, 19, 2018-03-12
0xd9cd7461f960e56364a294f124aac77b25e2b784, 15, 2018-03-12
0xf5C86C5BA5291DA78a2b4119dD7AEF99e3508362, 12, 2018-03-12
0xb2172027cb233198A3945A2c864f1Ec5b7E3b3Da, 18, 2018-03-12
0x94763846b1fcB75fcCfcb51a9636dDc26Af281b1, 15, 2018-03-12
0x7bb386c33486fe345168d0af94bef03897e16022, 15, 2018-03-12
0x25F8b4acD2c37D7eBAE0066fdf9f13F327c0c4EB, 13, 2018-03-12
0x3CF71871d2f56A6af21bf17ca2652cbC12E8ba1f, 10, 2018-03-12
0x94B40ECC7B38F5A9316B03dac4fC663E4D10cd15, 10, 2018-03-12
0xd1BDD067f5F1CbD358E2DDe444f8d9f41dE8AE76, 15, 2018-03-12
0xFA956f10da5E16f120EB299dF963c1f7563Bf66b, 15, 2018-03-12
0x9eb041AF96d44583110565ABeC79aedf22Eb60b5, 19, 2018-03-12
0xc9a08162b95915Edf6570F0439757e1F655De576, 19, 2018-03-12
0x7Eb28833082eB28fD423aB30Df20afDE98C47DBF, 19, 2018-03-12
0x8f0bca6b1b2b522082d46f3eec31340f113b029a, 19, 2018-03-12
0x636e5292882e2342aaf82d651322aea09a3e5392, 15, 2018-03-12
0xE276c66Af8853cDD91c1a25608B4E8B599F4da0e, 10, 2018-03-12
0x7Eb28833082eB28fD423aB30Df20afDE98C47DBF, 14, 2018-03-12
0xE276c66Af8853cDD91c1a25608B4E8B599F4da0e, 17, 2018-03-12
0xe350160E3C8A07E92Ec58DDcb8DF81A73Aedc6f9, 17, 2018-03-12
0xf021428381172eF96988b31F241f4000259488F7, 18, 2018-03-12
0xe350160E3C8A07E92Ec58DDcb8DF81A73Aedc6f9, 15, 2018-03-12
0xdefb014b9e2f3bd81cdb084821f99b681cfca695, 13, 2018-03-12
0x74104E8C7F546C7398d198F6678310cE9D1b8814, 10, 2018-03-12
0x4c569022016eBa68EA10DEE702670dc82d2749af, 18, 2018-03-12
0x16b9c4333559256CA7D87B28C6fb2e8415b4711f, 15, 2018-03-12
0x89E5124B5162A0CEEc512e8bA97Cd5E6F065fd13, 15, 2018-03-12
0x9e009c57b36aC7e3382697b4c9d3E7092A1CDb42, 18, 2018-03-12
0x0AF16719353EddC122eAf834638406c499197860, 14, 2018-03-12
0x602026bD56bF9Ca9D86926669e4353035aCA2A88, 12, 2018-03-12
0x89E5124B5162A0CEEc512e8bA97Cd5E6F065fd13, 13, 2018-03-12
0x629b2Aa7FddA8f7527d6f8ea742c1d5774E567EA, 12, 2018-03-12
0x4BDE78EaD56A30055D33Bf84f52E420b0f6070Ba, 13, 2018-03-12
0x89E5124B5162A0CEEc512e8bA97Cd5E6F065fd13, 12, 2018-03-12
0x76c88cd1eC2442c4f929B0f87280bE006D7BA725, 13, 2018-03-12
0x169b6c7Ed548e45bA9D87B2D32ff27e2D00051Ef, 18, 2018-03-12
0xE41031233301370491d47477E1171daB212d5352, 17, 2018-03-12
0x9546748F47a77408dfBFF0DC22505B2e9a75FdA4, 19, 2018-03-12
0x0AF16719353EddC122eAf834638406c499197860, 18, 2018-03-12
0x9CdfC5b0ACA4527a0916412E9dbD6AD85556A494, 13, 2018-03-12
0x0AF16719353EddC122eAf834638406c499197860, 15, 2018-03-12
0x0AF16719353EddC122eAf834638406c499197860, 14, 2018-03-12
0x9546748F47a77408dfBFF0DC22505B2e9a75FdA4, 19, 2018-03-12
0x8A6fcF189437928A6a07F6899B675D11F3D3F778, 10, 2018-03-12
0xB0dbA64e6a353A74cc78E8A98914c4Dff517bA7D, 15, 2018-03-12
0xcCdf72DE615b5158BB37931BbCE645aa69221520, 12, 2018-03-12
0xcCdf72DE615b5158BB37931BbCE645aa69221520, 17, 2018-03-12
0x4bb1c210E3921E0F051ed00e898B9605c902114e, 12, 2018-03-12
0x4899F3371Fb9F8E68A0b639bf1FD75220A089c42, 14, 2018-03-12
0x4bb1c210E3921E0F051ed00e898B9605c902114e, 13, 2018-03-12
0xe88379631857c0d8174EFEfDf8DCA25b29610f08, 10, 2018-03-12
0x7ba85E2e55c7598378Fe927aD2Aef2DAc6c45218, 19, 2018-03-12
0x7dCfD020aD161fBD4C45894ab352582018eA9197, 17, 2018-03-12
0x0b591a58137f154F59Aea1284166d6A7b49821Fd, 12, 2018-03-12
0x7DC66F5b59b34dF403B96FeC7E749703c157ebF8, 14, 2018-03-12
0xcb142defC16C9B409272447D87c74B722B767f1F, 15, 2018-03-12
0xE61dF1F5b8dd4e4E2a874157c2C97dAf7314b795, 13, 2018-03-12
0xEc970BbF167beee6fb536f1839418f3D19cE2a69, 18, 2018-03-12
0x247733aF8B2BB8e63e3a2A419761c0fd71D40499, 19, 2018-03-12
0x4899F3371Fb9F8E68A0b639bf1FD75220A089c42, 15, 2018-03-12
0x570AC27D1048dCBA1a4c58FE80109b9cf9b0e2Ef, 12, 2018-03-12
0xf4710562c804087AF20b7396Ce7CbA38B43fB61F, 15, 2018-03-12
0x71B7767A9464ea1AD82DB434F06d9330d34a9fE5, 14, 2018-03-12
0x79A9e902cFbE87fa5065905293992C15dE7F6095, 19, 2018-03-12
0xE977419eF28e71Ed541fF6318cEA9a6392709a48, 19, 2018-03-12
0xD3D26c61401924939Bee67dffdb7aA7A0138844C, 14, 2018-03-12
0xD3D26c61401924939Bee67dffdb7aA7A0138844C, 10, 2018-03-12
0xB113a2c20471ff1efdf2735206C630707263F41C, 14, 2018-03-12
0xa1b70Dc70FB74767cd380985Cf93C4Fb132fC4F7, 19, 2018-03-12
0x785a751B2E36b2B0Fdb80100B7ca14889a768A22, 6, 2018-03-12
0x8645eC394f7af95316639dcE6F99c01476B0d888, 14, 2018-03-12
0xaa2498d85bA7559006f90110A4Bc33c10A06c1AF, 6, 2018-03-12
0xe009321b26350c2CFF5DB607068c1f6813df40d7, 3, 2018-03-12
0xa8eb559EEb38C6CB6A8BC6C39bAdd86B113cd875, 14, 2018-03-12
0x52B34625687D6266a3B98fD5d214828F0670D7Ed, 15, 2018-03-12
0xa8eb559EEb38C6CB6A8BC6C39bAdd86B113cd875, 10, 2018-03-12
0x717D2041c516573a0e27F552CdB6C5c3EC7B4e09, 19, 2018-03-12
0xCc49d1f23F01DEcD4E18B6AAACccb038c9648E30, 14, 2018-03-12
0xCB89576d5e1627f4a0C64C2bb4d51798e92E8b8F, 15, 2018-03-12
0x37c85A7523B1832B4D0380B2f513e88B66e8c850, 12, 2018-03-12
0x560833296ef7A7F41b30c1065225Fa9b33830c19, 1, 2018-03-12
0x175F6DbF87215A6DA7107977B4680bc3db31b2dE, 15, 2018-03-12
0x362291375bD3fc2Ff0f928184bD6f373F92Dea57, 15, 2018-03-12
0xc8ac47854a3fed2b444beb83f4c95ba092a3a735, 15, 2018-03-12
0xCc49d1f23F01DEcD4E18B6AAACccb038c9648E30, 19, 2018-03-12
0x86e00684EA92cb87F40d74C5EBde97ef9A17753e, 13, 2018-03-12
0xC4625787be3fcCfF6AC2971945806AcC167C8CBd, 15, 2018-03-12
0xb8689c29bdc7c84f33706ff0f96eafc222ba6d86, 12, 2018-03-12
0xe74b02131Ed2184eb94fD357b4f303E6935367f5, 12, 2018-03-12
0x18f3489D959Fd0e3fAC366646e08f9aEabeA4D75, 15, 2018-03-12
0x1e12436889E2459202437077549e35b56f1299Cb, 17, 2018-03-12
0x878cce43a3b9d8A872a33d2d6CCD561E033707f4, 12, 2018-03-12
0x24aa18952E80707dad3ab4c9C97E787f2Af337Ca, 13, 2018-03-12
0x2F141d0cD81011436Df8fA04bDAC01cb6Cf51a65, 17, 2018-03-12
0x4fafc9291a0112a0ee0928361c02848ff2fdf6bd, 19, 2018-03-12
0xfb1a7CCf5bCd436DCc0acB49ba1fB9F57Bb4d064, 17, 2018-03-12
0xBc66E774CE25000950786241b8c5EE3275311Bd7, 10, 2018-03-12
0xBC210eC2EFAda9DF4897Dc9B23c58E96c01eF711, 15, 2018-03-12
0xD77B95800f67deB52E0e0988DBf01A311A3ccd80, 19, 2018-03-12
0x39D7C7acEc5bB282A4fB6E998D3D0099fF7780cf, 14, 2018-03-12
0x717D2041c516573a0e27F552CdB6C5c3EC7B4e09, 14, 2018-03-12
0xC5f6690F7b60FE739908E02AeC46aE07718CEc5f, 13, 2018-03-12
0x3715b1Ed9bbd5e165aF97619b5C5e13E39F55504, 14, 2018-03-12
0x63cfa80bbbee233a4257857dcdc9d78cbc8efe37, 12, 2018-03-12
0xB177fC9A7CAAa9c50D82c5D2533750F1D72aAC86, 13, 2018-03-12
0xF2dcFa51F83e41c0e988477f939c7A5e5b9a6905, 14, 2018-03-12
0x2b3F15a55a68C4C81ae8331C2FE8E90008993f51, 10, 2018-03-12
0x1363077895B20Ae90f80794cE4e575559517d033, 10, 2018-03-12
0xF23F9dda63ed0628609272DC0544C7a2f7189f51, 15, 2018-03-12
0x38B7Ca3B78c51364095BC56146D25F55AEe0af21, 14, 2018-03-12
0xb82bFd79d5A8C0cc0d4C045633288b48A2beDdcB, 13, 2018-03-12
0xd79eB898431eA62636F08f738D10eB00446403dE, 10, 2018-03-12
0x3007a0Db9CAAD557CF4589Cfd550c21ce9399b15, 19, 2018-03-12
0xfddBfa1b0B93612b95e3296690b63B74D019370C, 17, 2018-03-12
0x0755e59d505c9b473Aec50B476dF3ea2045739aa, 15, 2018-03-12
0x1CcC9b2769741aB0e1620721Df7Cf8FF1D70716B, 15, 2018-03-12
0x915c95415D3449212FD0991CCF5eB42864118EC9, 18, 2018-03-12
0xD43F2111e4055120196285eC094aA6e96998668b, 18, 2018-03-12
0x0Dea8A35F4E39cDF65d3cC11f10612E9E0278b60, 14, 2018-03-12
0x2b5268FDE5041f6B1Afd77166De4e9eA5D9e967a, 19, 2018-03-12
0xD0B473271e9D38dFD11925d62eF8c0a2cf033a9C, 14, 2018-03-12
0x23d56797f64640e96FEaF57b7874C897b53ef0E4, 1, 2018-03-12
0x508e1101755a4a6ae228b0e18002a816ce3418cE, 17, 2018-03-12
0xfe821f5509fdea3f72362d001697ad8c11f0c111, 19, 2018-03-12
0x0A9f58EE19A7131Ed031eA66a032c05C7efe965A, 10, 2018-03-12
0x5F58fE612DB5B3E97FAf4A2E8f38B4AE295288Aa, 15, 2018-03-12
0x1e3c07Ce10973fCAebC81468af1d3F390d2A4c71, 17, 2018-03-12
0x1e3c07Ce10973fCAebC81468af1d3F390d2A4c71, 15, 2018-03-12
0xAF313b5cF52D7a2Ad7785d008660ab68421dB2D1, 19, 2018-03-12
0x693D47204555361D4d51311f97102a1507559802, 18, 2018-03-12
0xC7308d5A7220Dc021CCF417445cB28cBb8Fece66, 10, 2018-03-12
0x1e3c07Ce10973fCAebC81468af1d3F390d2A4c71, 14, 2018-03-12
0x7bb386c33486fe345168d0af94bef03897e16022, 15, 2018-03-12
0xb65DB9F684F3BFa45Ad3fB4CDc4120618Ad81f00, 10, 2018-03-12
0xD33441A44Da0c1DCEE596aBB7ebDCdBa77c7DDBd, 13, 2018-03-12
0xd868A76A1dcc34854903376e734e3CFe461DD08C, 19, 2018-03-12
0xA7Ce02b8195FE8e3116A7e1248f2725EaAC86FeC, 19, 2018-03-12
0x0153775362C3071C1860e8dbfD53ccC82Fa226F5, 15, 2018-03-12
0x6642cEc9d02e4e669103a3Ed4F3505F437b8fe73, 10, 2018-03-12
0x3e2b9f6b67fc972419af5e9818281b745a6bf83b, 2, 2018-03-12
0x8dc2c980d25b586c5c110ec3c477e985b9acad8b, 3, 2018-03-12
0xd6f8668e96951e4108a79bc45ccef022544c73b3, 2, 2018-03-12
0xe06ae5c5ab3eda3a62918bf86532c7d87dbbc66d, 12, 2018-03-12
0x4a500bf6818ba31bb2b1dc90a354ab64ad3301dd, 3, 2018-03-12
0xf2601c5a063c6a6ca86d8b6bd0543158f83a10ce, 6, 2018-03-12
0x0dc04198cd942b55a7d63f5c3891122b6fa277ea, 1, 2018-03-12
0x07faacbe52a8b5d3d22f49206bdd9d9c1f71991d, 2, 2018-03-12
0xa0db4acb24e92167341320fcd882bbfb641cd12d, 3, 2018-03-12
0xac9093198de62e5289163e85bacb53ead596b9f3, 6, 2018-03-12
0x5ba53eb789c7f017fe3cd8027fb01c5eeb81f697, 6, 2018-03-12
0x116574a18659f0063150e0064e4ea00349a1492c, 10, 2018-03-12
0xc4dca8f7d121ad79057a8382fc9fa9898727ddd8, 3, 2018-03-12
0x68d41d0c11bf5536d6d8c186ccfaf3de1a022d67, 3, 2018-03-12
0x65af8c81291fb60a20235d9e4de80851f8f845d2, 6, 2018-03-12
0x57d4e4ea0a207074d7e45fe60c939d2f4d3ed06b, 12, 2018-03-12
0xc315f677f6a8f7b42d8fb32500e790cbf3dfbce8, 0, 2018-03-12
0x07a065bbc565002740caccb22b452fdd029ba988, 2, 2018-03-12
0xfd477bf560e59941796b398cea662b393298abc0, 0, 2018-03-12
0x39a7c26ada0e575d69f05dd6b8086f0ddd99e207, 6, 2018-03-12
0x1ccd65d573057c388ea96cc8be30c18a6d21185d, 0, 2018-03-12
0x1a2c53d132ff8a6e26f6b32c0abdc179b94f0721, 1, 2018-03-12
0xe02f2921742a6eec7ae44a18b1cca4277874bc74, 2, 2018-03-12
0x7e160f5cf87e44cbe6b1337bb883f453445391de, 12, 2018-03-12
0xd9204db19a18e051e861576a462c0cf83a2b6237, 6, 2018-03-12
0x0b1f025593acd090a6c9b754e6e46acf88e89646, 3, 2018-03-12
0xa62b5f23f4b3ddc20f879c3ff58d4b1ef2952d97, 3, 2018-03-12
0x1982b0e96a0375e5b570e8e466d423a37af34b43, 1, 2018-03-12
0x1d82886f997d0b124dfab342558bc463299c8a6b, 2, 2018-03-12
0xdef05b512d405f4fb930e252c6c11f054832c93b, 12, 2018-03-12
0xe6d3486a5fe2742e313a3266af8ff4f43e597d27, 2, 2018-03-12
0x99f93d05059f074e893ab369f71adb4569a3da12, 1, 2018-03-12
0x303f41f4e6a1e1fc9cc2738c722b73b3d9fe54cb, 2, 2018-03-12
0xcff5e190a3d92e480a8bc5b414362c0d1afeb54e, 1, 2018-03-12
0x8676f2dfd06ec780ea3f8fba65a29110a56dd830, 0, 2018-03-12
0xe1358ae1a9130bc458c8021fcbb7ef8aedd51487, 3, 2018-03-12
0x955427a36b5c92edee90a1448bfc7e854e9caef5, 10, 2018-03-12
0xe9ee84b3b818b2af67c4536248fbfc5c7a0ccfad, 2, 2018-03-12
0xe6c51d563f92a23dee9a7093bb1be33bd35c05d8, 0, 2018-03-12
0x956729a9e9b2ff42a30c8bd8fbe380b2c714825b, 6, 2018-03-12
0x788431a9fed9fae11871353cd6e92f3b724e7d63, 12, 2018-03-12
0xa6ba0996684fcff6167128a13c8b0a1648310e6e, 2, 2018-03-12
0xe1632e7e0dc135f3bc8991b917e8b682ab340fe1, 6, 2018-03-12
0xa05554fa940043c7ba191b16cbbe404c3f898f48, 3, 2018-03-12
0xd84af8766bd29b988f3426cc48cac5a6646f1f90, 6, 2018-03-12
0xc616d99df3bf92e3111090f94694bd662b72ab1d, 2, 2018-03-12
0xa490730ce2a97ec9f81f08fdb0eede36d6319bbd, 1, 2018-03-12
0x702d965332e3082dc976c3b4013cfe0e2c540bcb, 3, 2018-03-12
0x371850498d1bd60d67110d1d046ffabc10f957ec, 6, 2018-03-12
0x02f4a464eebb46a50dd087074d7a2cf3f5a3598b, 3, 2018-03-12
0xdf04e5007cb8fd65831310ceda40f5642c1b39c3, 6, 2018-03-12
0x9beb086842a6c61ad929995f7060e3ee2c4a94ce, 10, 2018-03-12
0x5e6dcab4f8edbfc1537b804803d831e5f42d8f3b, 2, 2018-03-12
0x703f0116bf2ef4c80efac751a319f097fd2dfe6c, 12, 2018-03-12
0x3d11b2189ad65e0e91e2f2b0e07cbc05ddc75b7a, 3, 2018-03-12
0xcec962222291e09a07c0bd0a110d2211e0358b28, 3, 2018-03-12
0x069a6761e9897ced3f5d13f4aa9ad745e526c913, 0, 2018-03-12
0x38c36d3faab64c0770af26cc6ee95d91312bc53c, 6, 2018-03-12
0x66e88b42922916d01b9aec71dd334d7fa5fb526d, 2, 2018-03-12
0xda917961872ae8e0c8b96f6925a4d7cc7b27aea3, 2, 2018-03-12
0x39ac3008be15cd3e3f23786faa0550c3e0b92ff2, 10, 2018-03-12
0x12736c6b02381c3c50e41db3a69d7bb651a77d57, 6, 2018-03-12
0x581cc257051a34972641d008c3915a75771be274, 6, 2018-03-12
0x4566b8b849dcdbe04f64bf1909db313cf60d6e41, 12, 2018-03-12
0x3884eb0ae2a04bce65b5b0ca9c1bd069cbd52c66, 2, 2018-03-12
0xf245e09a1b42f847b120558f0c6e08f821be23f7, 6, 2018-03-12
0xd06f80a4b932d7247aba4a85decce6c2458c0654, 12, 2018-03-12
0x0bdd81d2a676166f2a28691e8af64ebeeca67fae, 2, 2018-03-12
0xd22167d083a5cfc2f1ccadeb842a8093b2174c5f, 6, 2018-03-12
0xc593e92ed9fd3c2f9db972860047affd2df83ae7, 2, 2018-03-12
0x09cc69f6b484cada8e152d2002adfca496d723f3, 12, 2018-03-12
0x47dc6f08214f891cc910d6d2abfb504c2584f14f, 3, 2018-03-12
0x1c0dffa23f342a62ace37bd4eede6180c40ccbec, 2, 2018-03-12
0xd72ebdf278c092d9cdaa12c58f8bd9438f96b83e, 2, 2018-03-12
0xe824ec0f8384600f3187967f8b098014e31892f2, 12, 2018-03-12
0xe9ab68e4aa12bf290529626e5f32725cf5abfba8, 0, 2018-03-12
0xd354cf84a4cfd096120e2d4bf0a0cc8866d4efe1, 12, 2018-03-12
0x1dea82c5628ae89572a153a556312832ee33fda9, 3, 2018-03-12
0xe051ee9bd6270ff52d85ffe09685ee3a9755f04a, 0, 2018-03-12
0xcee9ee01d48050415f1b104277bd493c5dbe645e, 2, 2018-03-12
0xbf0c85867fcdd4064d22b0dfd91561a52134e035, 3, 2018-03-12
0xf689bb4b063683a9ffd7a9295106f1e47c095809, 1, 2018-03-12
0x0f7a4c36b5ee28e581504e8dfa62fa83a11ca7a9, 3, 2018-03-12
0xf1014a29614b196d19d8ecd5ff05f3cef5efdbe2, 1, 2018-03-12
0x0d87ca679a7ab95598b34eb54dafc356b0373388, 10, 2018-03-12
0xdc3fd5cce7b17e461c692ff34f22fbd4b780b151, 6, 2018-03-12
0xb1f873cb2cd0c818ce8b0a7d971f062808a47425, 2, 2018-03-12
0x7b3a132ad35b6138f2dd148bfac2e790e4869723, 2, 2018-03-12
0x6973c24fadd0bcab33ee5cb325c8a70e81c67c20, 3, 2018-03-12
0x15847dcd428033c2cc2cb70edf2cbd6c84afc146, 1, 2018-03-12
0x4411db7be552b487e3681e890ed14de9a9b24f7b, 0, 2018-03-12
0xa5b254aea2e59ab3ce3bec470fe1882403c41be0, 3, 2018-03-12
0xccffdb4bd0abb6fd105c1c4e03b4e919a5b57ab9, 0, 2018-03-12
0x31537238bb5b237254b629bf226b566c617f182b, 2, 2018-03-12
0xddff022e4befa69cbb5262446a8ae564700bea24, 2, 2018-03-12
0xe6b39dad6d7a50b233da23e510697422e9d6351a, 1, 2018-03-12
0xe9e837881c89e943c4c66e26031922bf8fc3f4f3, 10, 2018-03-12
0x3f4d77cdabf58f5bfd2ef20784cafd58334542f8, 1, 2018-03-12
0xcd63bb3586e871611cc60befcadf8e56bc7aeea3, 6, 2018-03-12
0x3ad44a16451d65d97394ac793b0a2d90c8530499, 2, 2018-03-12
0x6678bb2a94097f5046ff179a9dcec5be0985745b, 3, 2018-03-12
0xc14777c94229582e5758c5a79b83dde876b9be98, 6, 2018-03-12
0x5f6ab160206bc6a5d663ca5d0f237d82c572272b, 2, 2018-03-12
0xff35866acb80ce4b169d1460cd48108955c1c445, 3, 2018-03-12
0x45750cd6a3bb2206dbeb9cba5e68bf909ac945e3, 3, 2018-03-12
0xc36454ed2b40adef7c75b9cef95b2f8010d3e0d2, 12, 2018-03-12
0xde5886e65cbf1a9d21267f5ef7d5ed444cc63938, 0, 2018-03-12
0x1c0e294310091654beac3d191089d3c376be123f, 2, 2018-03-12
0xd2f4ea2f9d4c627c957305e28877081da9296d47, 10, 2018-03-12
0x91ef0754d270e67f2ca92595f5a1c0459ec7df89, 0, 2018-03-12
0x82334551e71b48387a122ebb256b188bf5868f44, 6, 2018-03-12
0x1d64ea27764164debb4e891eb04d524f42904b08, 2, 2018-03-12
0x495a8b1fdba38d726e514e95b4f1657c69fefa0a, 2, 2018-03-12
0x175e0d5f3757b066a6f0cf7634b45f3085cb490b, 0, 2018-03-12
0x93aebe50a59dfd4c1f7ed56f5177c6ced54a33af, 2, 2018-03-12
0x18e81898ac31a43850fb8d0224477349de6d8d9a, 10, 2018-03-12
0xd1091F9c7bb48651EDb17d255b2824de0EbD2074, 19, 2018-03-07
0x62e8aaffb7568cec94b0e15e7b4d859302d65ee9, 19, 2018-02-01
0xdf1ec2e44a8b1774b068ecfc5ef1c937a86baf3e, 19, 2018-01-31
0x2a6d8021861f27ab992572d8689017b7a83c989d, 15, 2018-01-31
0x88436C2A2f427F2aa641dFd8c6763facf2Bad7bf, 18, 2018-01-28
0xF855fEE50A8915634a105385cb6cB9e442D15457, 12, 2017-12-25
0xFE68DE56A07cD3AF0Ec40c22b0193115eCdD0501, 13, 2017-12-25
0xcda5dd8e13fdae006b270769b1a18fa6c5524ce0, 15, 2017-11-28
0x16112015d50fac2d084e096feea0863800517f94, 15, 2017-10-30
0x394f59e83D88469D3Ca3B8da15F31B73f27eadA7, 13, 2017-10-30
0x6721b09f4fB6Fe69a14aDD6d1f2C1b94562e7801, 19, 2017-10-26
0x85704b506E10b10D714eAd28CdE947bAA58F0EA4, 13, 2017-10-27
0x619f18aEC5f8EeF483fbfe654a269f1186ddA915, 10, 2017-10-27
0x501577Cd4865D7D50664a1519A79f1c0E7069154, 17, 2017-10-24
0x897757CbA67EADB66d40e45C6748E27D0E67b52a, 19, 2017-10-23
0xb9AE74bEafE4025cC0fCfB5e190169F2D7F0b563, 15, 2017-10-23
0xe10C24cA7bf18640FcB35E059919348891922a3b, 10, 2017-10-23
0xab215957873deadd9512fbde29e6c12bea1dd1a1, 18, 2017-10-23
0x09faf25e57abd0a401bb5a2341d7f926c389f8d1, 15, 2017-10-23
0x49311A81F5F5dF6C109599Ed5d7413d85b8bcA18, 15, 2017-10-14
0x8374aa52Bf36EaBcA06E33c4163A081F53e39Aa3, 18, 2017-10-14
0x434E9F6A1ac134FDa3E7cEb3fd67c3D9B3518737, 18, 2017-09-24
0x17BD6f815fB71a77dc20E12177c4d763A3f67632, 12, 2017-09-24
0x3de08B35c0e7F255F37a5dace9BD8eb78e99e985, 15, 2017-09-24
0xd92559E1F1d2E84F4964F45256693D03833D7D44, 15, 2017-09-23
0x560644F0980300B31DCde7B5F78d0d53e375371F, 15, 2017-09-21
0x37D0909CC7eC38F2d966092Ea3607F77bC6bc008, 18, 2017-09-21
0x854b62b692aC8411C3a45463c44CBdAbAC2D6913, 19, 2017-09-20
0xB116D83C919d6661dc20246D312B702f0cDf297C, 17, 2017-09-20
0x62eE4A3C690C9660762c52BF1a232365C86C879B, 14, 2017-09-19
0xFC74FB0D5df08EC546a3DA18CCc7FBcBe031F5D8, 19, 2017-09-19
0xfAd17C9da2beBF758e3BC0c99D1aBe8Af7e96eD1, 13, 2017-09-19
0xabc490af011C8E354B7D2112648883fe9E511695, 15, 2017-09-19
0xca4da1753336aa8340710e0E1a8c0BEE2bFbF56C, 15, 2017-09-19
0xE9aa3A74E3D62274f221ECa42736cAdC14CcfFaF, 10, 2017-09-19
0x9Aa722C9B6e63325797E1B2F8ff6873e44Dd17c1, 12, 2017-09-19
0xaff9e40f9b245b15a1d1bb45516ca213e682fa81, 14,
0xc0dED1d24c071ca13A905EC5E54A6Ffdd0c4dF68, 14, 2017-09-19
0x05E5061133f752EA565F40f1E755D9604C313bC9, 18, 2017-09-19
0x1c50139c266559b29d7cb27635e0da13bef76a09, 13, 2017-09-18
0x7098c7113c2ecaf48baad07e598c74c2689a5795, 15,  DNT
0xe7cc576611C2dF800862DB667140A90cF9eC4b72, 18, 2017-09-15
0x8eE2Ba41EF59b5773e5909451e0b8BaD4E59A81b, 10, 2017-09-16
0x34743FFA1f93e745668725e44EFEb3C50A237796, 10, 2017-09-16
0x4da9608F15c504a2B5C46491d9CCF257c5E2FF71, 12, 2017-09-16
0x008f3Db10374099A11ec263415Cb88C952AbEEDc, 10, 2017-09-15
0x8b3b831d767FAD1ab0ad52A38777acb98630F8a7, 19, 2017-09-15
0x5e5d6f6706420f932d796c0f28a83b26dabcfd8d, 19, 2017-09-14
0x1E75f03fF928BCA6c1692179679AFC0223d7824F, 10, 2017-09-14
0x395b53a4EF9736d698E86607047267f7F640fe34, 14,
0x6ddfef85ecf643628254e5af7064e05b3c6b221e, 10,
0x2D4498a2CF71F5b0946f0ebcfff97ca9D0cd5D04, 15, 2017-09-13
0x48d0a447b1d7b9a89112578db4536032d3047b2e, 19, 2017-09-13
0x40B942240fEc55473388Cbf7DBCC5482e64b4367, 15, 2017-09-13
0x7fBf068316C5806A62D549441ae82b00Fdb10dE1, 12, 2017-09-13
0x052f585fa599bfb4bed290ff30c057627ccd8059, 10, 2017-09-12
0xaD0C88F3313ABbce2185597E87A15f764e948A46, 14, 2017-09-12
0x3fcb2d173389b7cd8079ef8b439dbd92e7e0ae28, 13, 2017-09-06
0x3fcb2d173389b7cd8079ef8b439dbd92e7e0ae28, 12, 2017-09-06
0xc5d65deff5d1373f8b19aa8be528e9c3599013ba, 18, 2017-08-29
0xc38d14bf89e0001260bb349a006d7e491e5f43ad, 17,
0x3B0009071A0a9983E9AAb537FD8c9ad478310Aeb, 13,
0x15577E328Dd6E17b7721c9ca4d00610D3Ce3762F, 10, 2017-07-31
0xd0cc2b24980cbcca47ef755da88b220a82291407, 13, 2017-07-31
0xf0a924661b0263e5ce12756d07f45b8668c53380, 18,
0xf0a924661b0263e5ce12756d07f45b8668c53380, 15,
0xb3764761e297d6f121e79c32a65829cd1ddb4d32, 19, 2017-07-20
0xef0683bef79b7ad85573415c781edfde8bec65b1, 18, 2017-07-20
0x4de76b3dfd38292ba71cf2465ca3a1d526dcb567, 15, 2017-07-20
0x2d146aa23645950fdefbb23f636a5d1674fe1047, 17, 2017-07-20
0x5167052b83f36952d1a9901e0de2b2038c3dd1a3, 12, 2017-07-20
0x0b21fd643aaaf5af800af67e14ebf4886be20164, 17, 2017-07-20
0x6a14e385fff2f21abe425a07ce29842b7037a80d, 17, 2017-07-20
0x18345118bd04c405b4d74941563a21b5a2bf06b7, 14, 2017-07-20
0x474aa9c6f46dc6379c638690fd8f5ade22df5205, 10, 2017-07-20
0x25dc5894DB8eF7F7Ff7096eA73B890C1a188D549, 17, 2017-07-18
0x7da6955457b72fdd0e80709d704520ff85d79e39, 12, 2017-07-18
0x6a164122d5cf7c840d26e829b46dcc4ed6c0ae48, 15, 2017-07-18
0x41dfc5797c8043a2f4f7e7abf71291064e091fc6, 15, 7/18/17
0xc57f1148855e67763a694f7f2c0e68230adc686e, 18, 7/18/17
0x42c5459911ae51d1d005cbe39749bd8d8e533c22, 10, 7/18/17
0x5b67a30108e1a5f3d5a809d57e76cd16fdfde7a7, 14, 7/18/17
0xba83e9ce38b10522e3d6061a12779b7526839eda, 12, 7/18/17
0xaca33c43bd8deac8e1d144baa51fe9c7dd7b010f, 12, 7/18/17
0xa4fcbc4a0508b11d5ef34d41d72020a5def1c712, 15, 7/18/17
0x22eb0b23e5ad7ef827aff13b2e40ed63e277844e, 14, 7/18/17
0x7822b7b190604eaeb4dcaabd2dd5e1daafcb9d46, 17, 7/18/17
0x07425527076b4f73b5616716dda54fb14cf1219e, 13, 7/18/17
0x8e6be4cc78557cf3087b15963bf7139b0154e0e0, 15, 7/18/17
0xed2d26eed06ecfbfd796d1ec551d2a649a31e576, 13, 7/18/17
0x1D60606d8A09b5015D773A80b0C660Bb8d91809c, 15, 7/18/17
0x858457daA7e087ad74cDeeCEAb8419079bC2cA03, 15, 7/22/17
0x00e01a648ff41346cdeb873182383333d2184dd1, 10, 7/22/17
0x66817272D39Da7fd4C552F430fC0B694e357c157, 15, 7/22/17
0x240e125c20a4cC84Bd6E7F8D1FD07Aff4c06D43d, 17,
0xadF5b0c2103598fb66a61714152F1d1717D49FE0, 19,
0x93D8d5Bb1F1E4822F3C614D9A09e7C5e3Fabc13a, 18,
0x0C9D1b3Ca852C67bbeabeEB51E9482A845d56868, 19,
0x0d979f9fFDD579D67C29531ccCba568D2172D0b0, 15,
0x122c7f492c51c247e293b0f996fa63de61474959, 15,
0x199eee5b6ca1aaf030c77f0b5c50e39908fd2072, 13,
0x285cFe87F4AD22228a625DCd1F64b2BC6b27ecff, 10,
0x3018A3EaB048a0a1c15003b383A181F089A039cC, 10,
0x905475CbcA398e8Fee6E35bCb2f530a3474B78Ce, 19,
0x9327cb34984c3992ec1EA0eAE98Ccf80A74f95B9, 13,
0x944a3F5641d6FAf7a6AbDE4ec31e40d0929955eD, 15,
0xa8454096f4a18e0252b411f670b3dd9d21465e75, 12,
0xaF70168cdAc454Fa9fF94E5458D450ae7EEB7ae8, 18,
0xbc85a12364c9e375801c00aad17b893fc4c8f5b6, 15,
0xc9f32ce1127e44c51cbd182d6364f3d707fd0d47, 19,
0xEe2c2C2DCd952429147B62Fd4DcD7F565313E419, 19,
0xce52d38539e1e557f184f1073a59f69c9ba95f28, 15,
0xdb82af76f9ccddfe9e8f7996492f4c5bd5f9d53d, 15,
0xe112784753273eBEdE055968eCB78DCAD8fF6da2, 15,
0xeaB1d82E96541718e645fDef4A5ee9dF78605B76, 18,
0xed44fC770EAA76dB9AdE24d86CE3B409F4AeD009, 14,
0x36db23fd8e0fabb300ba95bfdf4a0f20b05eebfb, 13,
0x66817272D39Da7fd4C552F430fC0B694e357c157, 19, 2017-07-19
0xd821dfb705333d2c16e0c0c0be75ce360cca566a, 15, 2017-09-12
0x21918461C6aecA5EAEc825B4746D64a0D4028dF6, 10, 2017-09-05
0xDdd6854A002A6fbcDF695385cD5ed630c9E27C3e, 19, 2018-10-25